10.2307/j.ctv105b9gq.15	200
10.2307/j.ctvddznv3.16	200
10.1215/9780822394334-012	200
10.14361/9783839428221-006	200
10.14361/9783839437315-029	200
10.1515/9781400883615-014	200
10.1515/9780271060606-034	200
10.14361/transcript.9783839420157	200
10.1215/9780822380122-004	200
10.14361/9783839445150-013	200
10.14361/9783839403242-004	200
10.14361/transcript.9783839425855.261	200
10.14361/9783839447000-014	200
10.14361/9783839406861-004	200
10.14361/9783839444481-004	200
10.1515/9781400848256-010	200
10.14361/transcript.9783839416099.57	200
10.14361/transcript.9783839427026.59	200
10.14361/9783839406748-012	200
10.1201/9780367456238-16	200
10.14361/9783839444283-003	200
10.14361/9783839420881-009	200
10.3366/edinburgh/9780748670307.003.0005	200
10.1215/9780822382652-002	200
10.1215/9780822385226-004	200
10.1515/9781400874910-008	200
10.1215/9780822393306-007	200
10.14361/9783839435304-018	200
10.11126/stanford/9780804784542.003.0008	200
10.14361/transcript.9783839425671.91	200
10.1017/9781787446564.008	200
10.14361/transcript.9783839414361.163	200
10.14361/transcript.9783839422977.75	200
10.14361/9783839446966-011	200
10.14361/9783839408964-009	200
10.14361/9783839450338	200
10.1215/9780822385882-005	200
10.14361/9783839445426-012	200
10.1215/9780822374176-005	200
10.1515/9789048528707-014	200
10.1515/9781400827879-013	200
10.1215/9780822375920-003	200
10.1215/9780822372660-009	200
10.14361/9783839456712-009	200
10.1515/9781400839483-013	200
10.1201/9781003068341-26	200
10.14361/9783839430460-014	200
10.1215/9780822372905-005	200
10.2307/j.ctv1txdfrw.20	200
10.23943/9781400889211-004	200
10.3828/liverpool/9781904113171.003.0047	200
10.1515/9781575068657-008	200
10.1215/9780822371793-102	200
10.46692/9781447352068.006	200
10.14361/9783839454947-012	200
10.14361/transcript.9783839415566.19	200
10.1215/9780822394969-003	200
10.14361/9783839440209-003	200
10.1515/9781400883189-022	200
10.14361/9783839407707-011	200
10.14361/9783839445655	200
10.14361/9783839435953	200
10.14361/9783839437926-002	200
10.1215/9780822386452-010	200
10.2307/j.ctvx5w9fh.9	200
10.1215/9780822388579-015	200
10.3828/liverpool/9781874774051.003.0011	200
10.14361/9783839438404	200
10.14361/9783839448373-005	200
10.14361/9783839402627	200
10.23943/princeton/9780691205755.003.0003	200
10.2307/j.ctv21d62cm	200
10.2307/j.ctvwvr2vr.21	200
10.14361/transcript.9783839424179.181	200
10.2307/j.ctt1t88xzs.12	200
10.14361/transcript.9783839413869.135	200
10.14361/9783839409060	200
10.14361/9783839401361-008	200
10.14361/9783839443323-017	200
10.14361/9783839441657-006	200
10.1017/9789048553525.005	200
10.1215/9780822371649-006	200
10.1017/9781787445352.015	200
10.14361/9783839412480-013	200
10.14361/9783839441749-007	200
10.1017/9781787448063.003	200
10.4324/9780203017869-15	200
10.14361/9783839450017-019	200
10.1017/9781787444485.009	200
10.14361/9783839407332-009	200
10.14361/9783839451670-001	200
10.14361/9783839410400-007	200
10.5325/j.ctv1bxh2tn.20	200
10.14361/9783839412176-004	200
10.2307/j.ctv1sr6gzb.7	200
10.12987/9780300252798-008	200
10.14361/9783839452707-009	200
10.1515/9780691190426-009	200
10.14325/mississippi/9781496828644.003.0001	200
10.14361/transcript.9783839425275.intro	200
10.1515/9781575066929-002	200
10.2307/j.ctv1xx9n06.8	200
10.14361/transcript.9783839424162.203	200
10.1017/9781787444669.008	200
10.1201/9781003068631-9	200
10.14361/9783839430798-003	200
10.14361/9783839443712-007	200
10.14361/9783839409244-027	200
10.2307/j.ctv1mjqv95.31	200
10.14361/9783839408308-002	200
10.14361/9783839407936-008	200
10.14361/9783839453711-017	200
10.14361/9783839430774-004	200
10.14361/transcript.9783839424469.7	200
10.14361/9783839430590-008	200
10.14361/transcript.9783839421260.25	200
10.1017/9789048519590.046	200
10.14361/9783839441343-026	200
10.14361/9783839449424-007	200
10.14361/9783839407608-005	200
10.14361/9783839403334-016	200
10.14361/transcript.9783839419601.81	200
10.3828/liverpool/9780197100158.003.0002	200
10.1215/9780822389057-011	200
10.14361/9783839400883-004	200
10.1515/9781618117144-008	200
10.1332/policypress/9781447356974.003.0003	200
10.14361/9783839436127-008	200
10.1215/9780822375159-004	200
10.1515/9781400885299-010	200
10.14361/9783839428429-008	200
10.1215/9780822398905-003	200
10.14361/9783839448434-013	200
10.46692/9781529202175.005	200
10.14361/transcript.9783839422533.403	200
10.14361/9783839430880	200
10.14361/transcript.9783839426012.11	200
10.14361/9783839441879-017	200
10.1215/9780822390367-006	200
10.14361/9783839425596-016	200
10.14361/9783839445761-003	200
10.2307/j.ctv11smkw6.11	200
10.14361/transcript.9783839414521.425	200
10.14361/9783839452585-007	200
10.36019/9781684482801-002	200
10.14361/9783839452288-020	200
10.1515/9780691198071-005	200
10.11126/stanford/9780804768795.003.0005	200
10.1215/9780822384588-001	200
10.1215/9780822373964-006	200
10.1201/9781003073222-10	200
10.14361/9783839411605-013	200
10.1163/9781684175765_007	200
10.14361/transcript.9783839419083.189	200
10.14361/transcript.9783839419359.17	200
10.14361/9783839409138-001	200
10.2307/j.ctvk8w01c.4	200
10.1017/9781787448193.006	200
10.1017/9789048529506.005	200
10.1215/9780822390701-001	200
10.14361/9783839423660-020	200
10.1515/9781400855896.198	200
10.11126/stanford/9780804794084.003.0003	200
10.14361/9783839454558-011	200
10.2307/j.ctv1n9dkth	200
10.14361/9783839449752-012	200
10.1515/9780271083025	200
10.14361/9783839405741-010	200
10.5622/illinois/9780252042690.003.0011	200
10.1515/9781400873111-009	200
10.14361/transcript.9783839414262.125	200
10.3109/9780203414675	200
10.14361/9783839451052-011	200
10.14361/9783839456958-009	200
10.14361/9783839448632-021	200
10.14361/transcript.9783839418178.55	200
10.23943/princeton/9780691190938.003.0004	200
10.14361/9783839447451-003	200
10.14361/9783839409404	200
10.14361/9783839458044-008	200
10.1515/9781400833702-022	200
10.14361/9783839432891-008	200
10.14325/mississippi/9781496831286.003.0005	200
10.1215/9781478013099-119	200
10.11126/stanford/9781503610187.003.0008	200
10.14361/transcript.9783839421673.23	200
10.14361/9783839412749-007	200
10.14361/transcript.9783839417447.54	200
10.14361/transcript.9783839415283.191	200
10.14361/9783839448793-017	200
10.14361/9783839401866-006	200
10.23943/princeton/9780691202280.003.0005	200
10.14361/transcript.9783839423196.275	200
10.14361/9783839410967-001	200
10.14361/9783839451656-019	200
10.14361/9783839454084-017	200
10.1215/9780822374176-002	200
10.1515/9781575066493-010	200
10.1515/9781575065212-006	200
10.14361/9783839448366-026	200
10.23943/princeton/9780691175768.003.0015	200
10.23943/princeton/9780691202082.003.0020	200
10.14361/9783839451014	200
10.14361/9783839451700-004	200
10.14361/transcript.9783839423196.373	200
10.1215/9780822390152-002	200
10.2307/j.ctv1pnc1mr	200
10.14361/9783839428931-005	200
10.14361/9783839406083-007	200
10.14361/transcript.9783839421215.215	200
10.1215/9780822373926-015	200
10.14361/9783839409169	200
10.1215/9780822387756-009	200
10.14361/9783839430675-003	200
10.4324/9781003071860-4	200
10.14361/9783839450567-003	200
10.14361/9783839436639-004	200
10.1215/9780822394044-003	200
10.14361/9783839447420-002	200
10.1515/9780691184487-010	200
10.1515/9781575066394-030	200
10.1215/9780822378426-007	200
10.1515/9780822382522-026	200
10.1515/9780691224862	200
10.1525/9780520970656-005	200
10.7591/cornell/9781501715488.003.0006	200
10.14361/transcript.9783839422618.133	200
10.1215/9780822373957-024	200
10.14361/transcript.9783839414101.69	200
10.14361/9783839401163-003	200
10.1215/9780822386810-002	200
10.14361/9783839409442-012	200
10.1515/9781501717130-012	200
10.14361/9783839446515-027	200
10.14361/9783839432488-002	200
10.1201/9781003067979-6	200
10.14361/transcript.9783839424360.37	200
10.1515/9780271072258-029	200
10.14361/transcript.9783839421727.173	200
10.1215/9780822394778-009	200
10.1215/9780822396345-001	200
10.14361/9783839409961-008	200
10.3998/mpub.7172850	200
10.14361/9783839457139-010	200
10.1215/9780822397656-006	200
10.1515/9780823284481-009	200
10.14361/9783839411759	200
10.14361/9783839429419-001	200
10.14361/transcript.9783839424407.237	200
10.23943/princeton/9780691197845.003.0005	200
10.1515/9780691188621-010	200
10.1017/9781787448148.005	200
10.4324/9780203017869-7	200
10.14361/9783839457276-005	200
10.1215/9780822381174-023	200
10.1515/9781400848959-012	200
10.14361/transcript.9783839423493.27	200
10.14361/9783839431863-005	200
10.1515/9781575066042-030	200
10.7591/9781501708381-008	200
10.14361/9783839411308-020	200
10.14361/9783839410684	200
10.14361/9783839439661-005	200
10.14361/9783839409220-019	200
10.1515/9781575068763-015	200
10.1215/9781478009009-003	200
10.14361/9783839411001-001	200
10.14361/9783839446829-001	200
10.14361/9783839450093-009	200
10.14361/9783839413524-009	200
10.1332/policypress/9781447337201.003.0009	200
10.1215/9780822387183-013	200
10.14361/9783839406397-007	200
10.1515/9780822372943-024	200
10.1515/9781575065052-021	200
10.14361/transcript.9783839423974.245	200
10.3366/edinburgh/9781474403573.003.0001	200
10.14361/9783839407615-017	200
10.14361/9783839436615-003	200
10.14361/9783839452219-009	200
10.2307/j.ctvktrxp2.8	200
10.14361/9783839452738-006	200
10.3828/liverpool/9781789620207.003.0016	200
10.14361/9783839448632-020	200
10.36019/9781978805521-033	200
10.1201/9781003078647-54	200
10.14361/transcript.9783839422878.159	200
10.1215/9780822385912-017	200
10.14361/9783839408001-009	200
10.1215/9780822384182-004	200
10.14361/9783839458808-010	200
10.1515/9781400885381-001	200
10.1215/9780822374107-008	200
10.5949/UPO9781846315404.018	200
10.14361/transcript.9783839419984.7	200
10.14361/9783839450581-004	200
10.14361/9783839403396-003	200
10.1515/9781400855438.253	200
10.1215/9780822388364-005	200
10.14361/9783839453667-026	200
10.1515/9781575065809-003	200
10.14361/9783839449998-010	200
10.14361/9783839402641-005	200
10.14361/9783839427880-009	200
10.14361/9783839429624-002	200
10.3366/edinburgh/9780748641048.003.0008	200
10.14361/9783839407721-006	200
10.14361/9783839409367-002	200
10.3828/liverpool/9781786940438.003.0004	200
10.1215/9780822384335-009	200
10.14361/9783839441152-022	200
10.14361/transcript.9783839413968.157	200
10.14361/9783839407400-002	200
10.14361/9783839452660-022	200
10.14361/transcript.9783839421826	200
10.14361/9783839401200-001	200
10.3828/liverpool/9781874774594.003.0015	200
10.14361/9783839412268-009	200
10.1515/9781618118783	200
10.1201/9781003068624-1	200
10.14361/9783839459652-006	200
10.1017/9789048530694.008	200
10.1515/9781575068787-011	200
10.14361/transcript.9783839427736.15	200
10.14361/transcript.9783839425671.209	200
10.14361/9783839434369-001	200
10.3366/edinburgh/9781474403795.003.0015	200
10.14361/9783839405949	200
10.3366/edinburgh/9781474417716.003.0005	200
10.14361/9783839427002-002	200
10.14361/9783839411087-004	200
10.1332/policypress/9781447307150.003.0008	200
10.1215/9780822375425-004	200
10.14361/9783839454077-017	200
10.14361/9783839448878-005	200
10.14361/transcript.9783839416907.139	200
10.46692/9781447352228.005	200
10.1215/9780822394167-014	200
10.14361/9783839440827-011	200
10.14361/transcript.9783839428627.169	200
10.1515/9781575066042-034	200
10.2307/j.ctvsf1qrj.10	200
10.14361/9783839441398-008	200
10.14361/transcript.9783839418154.99	200
10.1332/policypress/9781861344984.003.0007	200
10.1332/policypress/9781861348043.003.0009	200
10.1017/9789048514502.009	200
10.1215/9780822383888-008	200
10.1215/9780822395973-005	200
10.14361/9783839455708-007	200
10.1215/9780822386599-011	200
10.14361/9783839434758-003	200
10.3366/edinburgh/9780748620111.003.0009	200
10.14361/transcript.9783839414538.133	200
10.14361/9783839402306-006	200
10.14361/transcript.9783839420386.283	200
10.1215/9780822383376-006	200
10.14361/9783839453162-010	200
10.1215/9780822383369-001	200
10.1515/9781400884896-002	200
10.14361/9783839435199-011	200
10.1215/9780822372967-009	200
10.14361/transcript.9783839416631.15	200
10.1215/9780822395553-009	200
10.14361/transcript.9783839417263.236	200
10.5325/j.ctv14gpcfw.7	200
10.14361/transcript.9783839420713.233	200
10.1515/9781400829408-027	200
10.1017/9789048552504.008	200
10.1017/9781787448995.007	200
10.1017/9781942401353.020	200
10.14361/9783839432365-005	200
10.11126/stanford/9780804784115.003.0008	200
10.14361/9783839450598-017	200
10.14361/9783839448182-010	200
10.14361/9783839443422-005	200
10.1515/9781478007456-027	200
10.1215/9781478021957-003	200
10.14361/9783839407936-006	200
10.14361/9783839430712-001	200
10.14361/9783839401439-001	200
10.14361/transcript.9783839424957.127	200
10.14361/9783839410172-prf	200
10.11126/stanford/9780804783637.003.0001	200
10.14361/9783839430415-005	200
10.14361/transcript.9783839418192.95	200
10.14361/transcript.9783839423653.307	200
10.14361/9783839457504-067	200
10.2307/j.ctv1zjg8tc	200
10.14361/9783839438473-006	200
10.14361/transcript.9783839424643.74	200
10.1215/9780822396208-077	200
10.14361/9783839446461-007	200
10.14361/9783839405123-029	200
10.14361/9783839459584	200
10.2307/j.ctt1s17p06.9	200
10.1201/9781003090120-7	200
10.14361/transcript.9783839417171.215	200
10.14361/9783839453599-009	200
10.1017/9781787448995.004	200
10.2307/j.ctt9qdz8c	200
10.14361/9783839439456-006	200
10.14361/9783839441985-008	200
10.4324/9781003070818-10	200
10.1515/9780691196695-006	200
10.14361/9783839447895-005	200
10.14361/9783839401644-024	200
10.14361/9783839406649-009	200
10.1215/9780822374961-022	200
10.1332/policypress/9781529215144.003.0009	200
10.14361/transcript.9783839426838.115	200
10.1332/policypress/9781447332022.003.0014	200
10.5622/illinois/9780252041976.003.0003	200
10.14361/9783839427644-007	200
10.1215/9780822395027-007	200
10.14361/9783839442524-025	200
10.1215/9780822379430-007	200
10.14361/9783839446263-006	200
10.14361/9783839457269-007	200
10.14361/9783839402740-005	200
10.14361/transcript.9783839418390.129	200
10.1017/9789048541904.004	200
10.14361/transcript.9783839426715.99	200
10.14361/transcript.9783839419632.335	200
10.14361/9783839436530	200
10.14361/9783839409015-012	200
10.14361/9783839449691-009	200
10.1163/9781684172092_004	200
10.1017/9781787444393.015	200
10.1515/9781646021512-028	200
10.1201/9781003070276-14	200
10.1215/9780822396567-002	200
10.1215/9781478021308-012	200
10.5117/9789463722322	200
10.1515/9781575068671-024	200
10.14361/9783839410592-009	200
10.1332/policypress/9781529215144.003.0007	200
10.14361/9783839430842-005	200
10.14361/9783839454152-001	200
10.14361/9783839451847-011	200
10.1215/9780822393924-004	200
10.1215/9781478021308-023	200
10.1515/9781400868285-034	200
10.14361/9783839434994-017	200
10.14361/transcript.9783839402955.43	200
10.14361/9783839406489-015	200
10.3828/liverpool/9781911325406.003.0004	200
10.1515/9783839460917	200
10.14361/9783839432594-008	200
10.5949/liverpool/9781846311093.003.0009	200
10.14361/9783839408971-006	200
10.14361/9783839447024-011	200
10.14361/transcript.9783839423707.39	200
10.46692/9781447360391.006	200
10.23943/princeton/9780691197876.003.0023	200
10.4324/9781003047780-9	200
10.14361/9783839435410-004	200
10.1215/9780822397496-001	200
10.2307/j.ctvd1c9d4.7	200
10.1515/9781575065403-020	200
10.14361/9783839454077-011	200
10.14361/9783839411773-010	200
10.1525/9780520975057	200
10.14361/9783839412510-013	200
10.14361/9783839413432-016	200
10.14361/9783839408247-010	200
10.14361/9783839451717-017	200
10.14361/9783839441008-005	200
10.1525/9780520971141-016	200
10.14361/transcript.9783839425442.45	200
10.14361/transcript.9783839419069.137	200
10.14361/9783839441190-015	200
10.1515/9781400846672-018	200
10.1215/9780822371793-131	200
10.23943/princeton/9780691159263.003.0007	200
10.46692/9781529211887.011	200
10.14361/transcript.9783839419540.303	200
10.14361/9783839432334-006	200
10.14361/transcript.9783839413777.317	200
10.14361/9783839409138-006	200
10.2307/j.ctvdtpgtm	200
10.14361/9783839436622-002	200
10.2307/j.ctt1s17p06.51	200
10.11126/stanford/9780804776868.003.0006	200
10.1201/9781003071075-1	200
10.14361/9783839434369-004	200
10.14361/9783839445761-009	200
10.14361/9783839406618-009	200
10.1215/9780822386926-008	200
10.14361/9783839456149-012	200
10.14361/9783839451298-007	200
10.14361/9783839439395-010	200
10.14361/9783839451748-003	200
10.14361/9783839408339-004	200
10.46692/9781447345169.012	200
10.14361/9783839413791-008	200
10.1515/9781400833702-029	200
10.1515/9781400823499-007	200
10.1017/9781787446953.006	200
10.1201/9781003071914-5	200
10.14361/transcript.9783839423523	200
10.1515/9783839449684	200
10.14361/9783839404539-005	200
10.14361/9783839402931-002	200
10.14361/9783839438749-003	200
10.14361/9783839442609	200
10.14361/9783839403341-007	200
10.2307/j.ctvnwbz7q.6	200
10.1017/9781800101074.012	200
10.1163/9781684171989	200
10.1515/9781575064147-009	200
10.1017/9781942401902.005	200
10.14361/9783839437995-013	200
10.1215/9780822388579-007	200
10.14361/9783839405024-008	200
10.14361/9783839430156-004	200
10.2307/j.ctv1v0907q.9	200
10.14361/9783839460375-011	200
10.2307/j.ctv69tgs1.4	200
10.1215/9780822377139-053	200
10.14361/9783839439128-011	200
10.1017/9789048511211.010	200
10.14361/transcript.9783839423738.137	200
10.14361/9783839430798-021	200
10.14361/transcript.9783839422663.173	200
10.14361/transcript.9783839425695.395	200
10.11126/stanford/9780804774468.003.0004	200
10.14361/9783839450932-025	200
10.1515/9781400836079-001	200
10.3828/liverpool/9781949979237.003.0005	200
10.1215/9781478010302-006	200
10.5117/9789463728607_ch18	200
10.14324/111.9781787355514	200
10.1017/9789048521142.030	200
10.14361/9783839445198-043	200
10.1017/9789048542079.006	200
10.1215/9780822386681-012	200
10.14361/transcript.9783839425459.41	200
10.14361/9783839438541-011	200
10.14361/transcript.9783839420843.201	200
10.14361/9783839406137	200
10.1215/9780822387619-007	200
10.1017/9781787448759.015	200
10.14361/9783839407196-001	200
10.14361/9783839429594-015	200
10.14361/9783839410240	200
10.2307/j.ctv1zjg7bn.19	200
10.1215/9780822380788-008	200
10.14361/9783839440544	200
10.14361/9783839435922-002	200
10.3366/edinburgh/9780748647477.003.0005	200
10.1215/9780822387527-012	200
10.3828/liverpool/9781911325932.003.0001	200
10.14361/transcript.9783839418345.35	200
10.23943/princeton/9780691202754.003.0013	200
10.1215/9781478005643-040	200
10.14361/9783839430460-013	200
10.14361/transcript.9783839425725.153	200
10.1017/9781787448018.003	200
10.1332/policypress/9781447351955.001.0001	200
10.1515/9780824877385-117	200
10.14361/9783839406915-033	200
10.1017/9789048536238.004	200
10.14361/9783839410820-008	200
10.1525/luminos.91.a	200
10.14361/9783839410509-004	200
